<?xml version="1.0" encoding="utf-8"?>
<!-- Generator: Adobe Illustrator 22.0.1, SVG Export Plug-In . SVG Version: 6.00 Build 0)  -->
<svg version="1.1" id="Layer_1" xmlns="http://www.w3.org/2000/svg" xmlns:xlink="http://www.w3.org/1999/xlink" x="0px" y="0px"
	 viewBox="0 0 350.3 158.5" style="enable-background:new 0 0 350.3 158.5;" xml:space="preserve">
<style type="text/css">
	.st0{fill:#FFFFFF;}
</style>
<g>
	<path class="st0" d="M74.1,144.7v0.8h10.6v-0.8c-3,0-3.3,0-3.6-3.8l-1.3-18.7c-0.1-1.4,0.7-1.4,2.7-1.6v-0.7h-6.1l-9.9,20.8
		l-9.9-20.8h-6.2v0.7c2.6,0.2,2.6,0.9,2.5,3.6l-1,16c-0.2,3.8-0.6,4.4-3.6,4.4v0.8h8.6v-0.8c-1.9-0.1-3.4-0.5-3.3-2.6l1.1-18.6h0.1
		l10.5,22h0.9l10.3-22h0.1l1.2,18.5C77.9,144.2,76,144.7,74.1,144.7z"/>
	<path class="st0" d="M94.8,126v-0.6H87v0.6c1.8,0.1,2.4,0.6,2.4,2.3v13.8c0,2.2-0.4,2.7-2.4,2.8v0.6h7.9v-0.6
		c-2.2,0-2.7-0.6-2.7-2.6v-13.7C92.1,126.5,92.8,126,94.8,126z"/>
	<path class="st0" d="M109.1,125.8c3.5,0,6.3,2,7.4,5h0.6l-0.3-4.7h-0.5c-0.1,0.1-0.2,0.2-0.6,0.2c-1,0-2.7-1.3-6.8-1.3
		c-6.8,0-11.6,4.5-11.6,10.8c0,6,4.7,10.3,11.3,10.3c3.8,0,5.2-1.2,7.3-0.9c0.8-1.3,1.6-3.3,2.1-4.7h-0.6c-2.2,3.9-5.3,4.8-7.9,4.8
		c-4.9,0-9.1-4.3-9.1-10.1C100.3,129.7,103.7,125.8,109.1,125.8z"/>
	<path class="st0" d="M135.7,144.9h-1v0.6h9.1v-0.6h-0.3c-1.9,0-2.6-0.5-2.6-2.8v-13.4c0-2,0.5-2.6,2.5-2.6v-0.6h-8.3v0.6h0.6
		c2,0,2.6,0.6,2.6,2.4v6.4h-12.7v-5.6c0-2.5,0.4-3.1,2.7-3.1v-0.6h-7.7v0.6c1.8,0.1,2.3,0.6,2.3,2.3v14.2c0,1.8-0.6,2.4-2.6,2.4
		h-0.2v0.6h8.1v-0.6h-0.1c-2.2,0-2.6-0.7-2.6-2.8v-6.1h12.7v6.6C138.2,144.2,137.8,144.9,135.7,144.9z"/>
	<path class="st0" d="M158.4,144.9h-0.8v0.6h8.9v-0.6c-1.6,0-2.3-0.3-2.9-2l-6.8-17.9H154l0.3,0.7l-5.9,16.1c-1,2.8-1.4,3.2-3.5,3.2
		v0.6h7.5v-0.6h-0.5c-1.8,0-2.6-0.3-2.6-1.2c0-0.5,0.4-1.4,0.6-2l1.9-5.1h6.7l2.2,5.9c0.1,0.3,0.4,0.8,0.4,1.3
		C161,144.7,160.3,144.9,158.4,144.9z M152.3,135.2l2.7-7.5l2.8,7.5H152.3z"/>
	<path class="st0" d="M167.7,144.9h-0.9v0.6h17.2l0.5-4.8h-0.6c-0.8,2.8-1.5,3.7-3.7,3.7h-5c-1.2,0-1.7-0.3-1.7-1.8v-6.9h5.5
		c1.3,0,1.9,0.3,2.2,2.6h0.6v-6.1H181c-0.2,1.9-0.7,2.4-1.9,2.4h-5.8v-7.9h6.8c1.2,0,2,0.6,2.4,3.3h0.6l-0.3-4.5h-15.5v0.6h0.7
		c2.2,0,2.6,0.8,2.6,2.6v13.6C170.7,144.2,170.2,144.9,167.7,144.9z"/>
	<path class="st0" d="M187.6,144.9h-1.1v0.6h14.4l2.5-4.7h-0.6c-2,2.8-2.6,3.6-4.5,3.6h-4.7c-0.9,0-1.3-0.3-1.3-1.2v-14.9
		c0-2,0.5-2.2,2.6-2.2h1.2v-0.6h-9.5v0.6h0.5c2,0,2.6,0.7,2.6,2.4v14.3C189.6,144.4,189.1,144.9,187.6,144.9z"/>
	<path class="st0" d="M205.4,126.9c0-1.6-1-2.7-2.3-2.7c-1,0-1.7,0.7-1.7,1.6c0,0.8,0.6,1.5,1.5,1.5c0.4,0,0.5-0.1,0.8-0.1
		c0.3,0,0.5,0.3,0.5,0.7c0,1.2-0.9,2.3-2.5,3.2l0.2,0.6C203.9,130.8,205.4,128.9,205.4,126.9z"/>
	<path class="st0" d="M215.1,145.2c-2.5,0-4.8-1.7-5.5-4.6H209l0.7,4.9h0.5c0.1-0.2,0.4-0.4,0.6-0.4c0.5,0,2.7,0.9,4.5,0.9
		c3.8,0,6.6-2.4,6.6-5.5c0-5.9-10.4-7.2-10.4-11.8c0-1.8,1.5-3,3.6-3c2.2,0,4.3,1.5,5.2,3.8h0.5l-0.5-4.1h-0.5
		c-0.2,0.3-0.3,0.3-0.6,0.3c-1.1,0-1.7-0.8-4.4-0.8c-3.3,0-5.8,2-5.8,4.7c0,5.7,10.4,7.1,10.4,11.7
		C219.5,143.9,217.2,145.2,215.1,145.2z"/>
	<path class="st0" d="M252.9,144.8h-1.2v0.8H263v-0.8h-0.4c-2.4,0-3.2-0.6-3.2-3.5v-16.6c0-2.5,0.6-3.2,3-3.3v-0.8h-10.3v0.8h0.8
		c2.5,0,3.2,0.8,3.2,2.9v7.9h-15.7v-7c0-3.1,0.5-3.9,3.3-3.9v-0.8h-9.5v0.8c2.2,0.2,2.9,0.8,2.9,2.8v17.7c0,2.3-0.8,2.9-3.2,2.9
		h-0.2v0.8h10.1v-0.8h-0.1c-2.7,0-3.2-0.9-3.2-3.5v-7.6h15.7v8.1C256.1,143.8,255.5,144.8,252.9,144.8z"/>
	<path class="st0" d="M264.3,135.9c0,6,5.3,10.1,11.7,10.1c6.3,0,11.5-4.6,11.5-11.1c0-5.8-5.2-10-11.3-10
		C269.2,124.9,264.3,129.5,264.3,135.9z M284.4,136c0,4.6-2.5,9.2-7.8,9.2c-5.2,0-9.3-4.3-9.3-10.3c0-3.9,2.3-9.2,7.9-9.2
		C280.6,125.8,284.4,130,284.4,136z"/>
	<path class="st0" d="M301.8,146c7,0,9.6-4.3,9.6-8.3V129c0-2.1,0.8-2.9,2.9-3v-0.6h-7.6v0.6c2.7,0.1,3.2,0.7,3.2,3.8v7.5
		c0,5.5-3.7,7-7.4,7c-4.8,0-7.4-2.6-7.4-7v-9c0-1.9,0.8-2.4,2.6-2.4h0.3v-0.6h-8.3v0.6c2.2,0,2.8,0.4,2.8,2.4v9.4
		C292.5,142.5,295.7,146,301.8,146z"/>
	<path class="st0" d="M322.2,145.2c-2.5,0-4.8-1.7-5.5-4.6h-0.6l0.7,4.9h0.5c0.1-0.2,0.4-0.4,0.6-0.4c0.5,0,2.7,0.9,4.5,0.9
		c3.8,0,6.6-2.4,6.6-5.5c0-5.9-10.4-7.2-10.4-11.8c0-1.8,1.5-3,3.6-3c2.2,0,4.3,1.5,5.2,3.8h0.5l-0.5-4.1h-0.5
		c-0.2,0.3-0.3,0.3-0.6,0.3c-1.1,0-1.7-0.8-4.4-0.8c-3.3,0-5.8,2-5.8,4.7c0,5.7,10.4,7.1,10.4,11.7
		C326.7,143.9,324.4,145.2,322.2,145.2z"/>
	<path class="st0" d="M331.6,144.9h-0.9v0.6h17.2l0.5-4.8h-0.6c-0.8,2.8-1.5,3.7-3.7,3.7h-5c-1.2,0-1.7-0.3-1.7-1.8v-6.9h5.5
		c1.3,0,1.9,0.3,2.2,2.6h0.6v-6.1H345c-0.2,1.9-0.7,2.4-1.9,2.4h-5.8v-7.9h6.8c1.2,0,2,0.6,2.4,3.3h0.6l-0.3-4.5h-15.5v0.6h0.7
		c2.2,0,2.6,0.8,2.6,2.6v13.6C334.6,144.2,334.2,144.9,331.6,144.9z"/>
	<path class="st0" d="M349.1,109.1h-10.1c-1.5-1.1-7.4-5.2-14.4-8.7c-10.9-2.7-25.5,2.7-32.4-5.1c-1.5-1.7-1.9-3.9-3.1-6.6
		c-8.8-4.7-29.3-4.6-35.7,2c-0.3,1.9,0.3,4.6-1,6.6c-9.4,1.9-15.3,2.2-25,1c-4.4-0.5-7.5-0.3-8.7-5.1c0.6-1.7,2-3,3.6-4.1
		c3.9-2.6,11.2-2.6,14.8-5.1c2.5-1.8,5-5.7,4.1-9.2c-0.7-2.8-3.9-1.9-5.1-5.1c0.9-3.2,5.2-2.9,9.2-3.1c4-2.8,1.8-6.8,2-10.7
		c6.6,0.6,12.2,3.6,17.9,6.6c5.4,2.8,11.4,5.2,16.3,8.2c5.1,3.1,8.5,7.3,13.3,9.7c5.2,2.6,11.3,2.9,17.4,5.6
		c11.7,5.3,21.7,16.4,36.2,16.8c1-4.1-3-4.1-5.1-5.1c-2.3-1-5.4-2-7.7-3.1c-0.5-0.2-14.6-9-19.4-10.7c-1.6-0.6-3.4-1.2-5.1-2
		c-16.9-7.8-34.1-18.9-49.5-26c-4.2-1.9-11.1-5.9-15.3-6.1c-6.8-0.3-11.9,3.3-17.9,5.6c-4.9,1.9-10,2.6-14.3,4.1
		c-3.4,1.2-7,3.7-12.8,5.6c-4.1,1.4-12.8,3-12.8,6.1c0,7.7,16.8,0,18.9,5.6c-3.4,7.2-13.6,8.7-20.9,11.2c-2.5,0.9-4.8,2.1-7.1,2.6
		c-15,2.7-29-3.5-40.8-8.7c-6.2,4.3-13.9-2.2-20.4-0.5c-2.7,0.7-5.1,3.4-7.7,4.6c-9.5,4.3-18.8,5.2-27.1,11.2
		c-2.4,0.3-5.1,1.7-8.2,2c-5,0.6-11,0.6-14.8-1C64,92.1,72,90.7,79.3,88.1c4.5-1.6,8.8-4.1,12.8-5.1c7.5-1.9,13.7-3,16.3-9.2
		c-1.2-2.7-4.8-3.1-6.1-5.6c1.2-1.1,2.6-2.1,4.1-3.1c1.1-0.8-0.3-4.1,2-3.6c3.4,0.8,7.2,3.7,11.7,5.6c8.5,3.6,17.3,7.6,25,11.7
		c4.4,2.4,8.6,5.6,12.3,6.6c3.4,1,14.7,2.6,14.8-2c0.1-3.4-5.2-2.7-6.6-5.1c1.3-3.6,1-4.1,0.5-8.7c1.6-1.8,5.2-1.6,6.1-4.1
		c-0.3-4.1-3.4-5.4-4.1-9.2c3.1-2.7,7.6-0.5,10.7-1c2.3-0.4,3.2-0.9,5.1-2.6c0.9-2.5-2.4-4.1,0-5.1c7.9,1,15.8,8.1,25.5,9.2
		c2.1,0.2,4.4,0.2,6.6-0.5c-2.9-6.1-11.6-5.5-18.4-8.2c-6.8-2.7-12.7-7.2-18.4-8.7c-2.1-0.6-5-1.1-6.6-1c-5.7,0.1-7.3,3.4-11.2,5.6
		c-2.4,1.4-5.2,1.9-7.7,3.1c-3.7,1.8-7.4,4.5-10.2,6.1c-1.3,0.8-3.1,0.9-4.1,1.5c-3.9,2.4-6.6,7-11.2,7.7c-6.9,0.9-12-4.4-18.9-5.6
		C98.1,55,95.8,61.6,89,63.1c0.5-3.7-1.4-5.1-1-8.7c1.7,0.8,2.3,1.1,4.1,0c0.7-0.7,0.5-2.2,0.5-3.6c0.5-1,2.6-0.4,2.6-2
		c-1.4-3-2.3-6.6-7.1-6.1c0.4-1.5,2.4-1.3,2-3.6c-0.9-2-5.1-0.7-6.1-2.6c1.1-1.9,5.4-0.7,5.1-4.1c-0.8-2.2-6.5,0.5-4.1-3.6
		c-2.1,0.1-3.6,0.8-6.6,1c-0.2-3.4-1.5-5.6-3.6-7.1c-3.6,0.6-5.8,5-8.7,4.6c-1.8-0.8-1.1-4-3.6-4.1c-5,0.3-6.2-3.3-8.7-5.6
		c-1.2-0.9-4.1,1-5.6-0.5c0.5-3.3,3.2-6.9,2.6-9.7c-3.5-1.6-5.8,1.4-10.2,0.5c-0.7-3.4-0.6-4.6-1.5-7.1c-4,1.6-6.2,5.1-9.7,7.1
		c-1.1-2-1.9-4.2-3.6-5.6c-1.4,0.5-2,1.8-3.6,2c-1.4,0.2-3.5-3.2-4.1-0.5c-0.7,2.6,3,4.5,4.1,7.7c0.6,1.8,0.9,4.1,0.5,6.1
		c-3.8-1.8-7.7-1.2-11.7-1c-2.3,0.1-4.7-1-6.1,1c2.2,0.9,4.3,2.8,6.6,4.1c2.8,1.5,7,1.7,8.2,5.1c-2.2,1.4-4.7,2.2-7.7,1.5
		c-3.8,2-6.3,5.1-8.7,8.7c-1.7,2.6-4.2,5.6,0,7.1c2.3-0.5,2.1-5.8,5.1-4.1c-1.2,3.4-3.1,6.1-4.1,9.7c3.1-0.4,5.6-1.2,9.2-1
		c4.4-1.5,6.6-8,9.7-9.2c1.9,2.8,0.2,6.3,1,9.7c1,4,4.3,6.8,5.6,9.7c-3,11.1-4.1,21.2-5.6,33.2c-0.9,6.9-2.3,14-3.1,20.9
		c-0.5,4.7-1.6,31.5-1.6,39.4h-0.2v3.8h329.8v-3.8H34.5c3-12.4,6-29.1,10.2-39.6h304.4V109.1z M81.9,62.6c0.9,1.3,2.5,1.9,2,4.6
		c-1.3,0.4-2,1.4-3.6,1.5C81.1,66.9,82.5,65.7,81.9,62.6z M68.1,70.2c0.7-0.2,0.4-1.3,0.5-2c2.5,1.5,3.4-0.8,4.1-2.6
		c2.8,0.3,3.1,3,4.6,4.6c-4.7,6.6-11.1,11.4-15.8,17.9c-3.8,3.1-6.9,5.6-9.4,6.1C55,86,61.2,71.2,68.1,70.2z M27.7,141.2
		c-1.5-19.5,1.6-38.7,4.1-55.1c0.9-6,2.5-27.2,6.6-29.1c-0.9,4.1,4.2,3.6,5.1,3.6c2.5-0.2,2.5-2.2,5.1-3.6c-0.1,0.1,4.9-0.6,6.1-1.5
		c2.2,2.6,2.8,5.3,2,9.7c-1.8,10.8-8.1,20.6-12.8,31.7c-3.5,8.4-5.4,15.3-8.4,23.5C34.8,122.7,29.9,140.3,27.7,141.2z"/>
</g>
</svg>
