<?xml version="1.0" encoding="utf-8"?>
<!-- Generator: Adobe Illustrator 22.0.1, SVG Export Plug-In . SVG Version: 6.00 Build 0)  -->
<svg version="1.1" id="Layer_1" xmlns="http://www.w3.org/2000/svg" xmlns:xlink="http://www.w3.org/1999/xlink" x="0px" y="0px"
	 viewBox="0 0 269 72.7" style="enable-background:new 0 0 269 72.7;" xml:space="preserve">
<style type="text/css">
	.st0{fill:#FFFFFF;}
</style>
<path class="st0" d="M169.6,43.8h-3.2c-0.2-0.2-0.3-0.4-0.4-0.6c-0.2-0.2-0.4-0.5-0.6-0.9c-0.2-0.3-0.4-0.6-0.5-0.8l-0.8-1.4
	c-0.2-0.4-0.5-0.8-0.8-1.2c-0.2-0.2-0.4-0.4-0.6-0.4c-0.4-0.1-0.8-0.1-1.2-0.1h-0.5v3.1c0,0.3,0,0.5,0.1,0.8
	c0.1,0.2,0.3,0.4,0.5,0.5c0.4,0.1,0.8,0.2,1.2,0.2v0.8h-6.1V43c0.7,0,1.2-0.1,1.4-0.3c0.2-0.2,0.3-0.6,0.3-1.1V34
	c0-0.5-0.1-0.9-0.3-1.1c-0.2-0.2-0.7-0.3-1.4-0.3v-0.8l2.8-0.1c0.2,0,0.5,0,0.7,0c0.3,0,0.5,0,0.8,0c0.2,0,0.5,0,0.9,0
	c0.6,0,1.2,0.1,1.7,0.1c0.4,0,0.8,0.1,1.2,0.2c0.5,0.1,0.9,0.3,1.3,0.6c0.4,0.3,0.7,0.6,1,1c0.3,0.5,0.4,1,0.4,1.5
	c0,0.4-0.1,0.8-0.3,1.2c-0.2,0.4-0.5,0.8-0.8,1c-0.5,0.3-1,0.6-1.5,0.7c0.4,0.2,0.8,0.6,1.1,0.9c0.3,0.4,0.8,1.1,1.4,2.1
	c0.3,0.5,0.6,0.9,0.9,1.3c0.2,0.2,0.4,0.4,0.7,0.6c0.2,0.1,0.5,0.2,0.8,0.2L169.6,43.8z M164.6,35c0-1-0.3-1.6-0.9-1.9
	c-0.6-0.3-1.3-0.5-2.3-0.5c-0.1,0-0.2,0-0.3,0c-0.1,0-0.2,0-0.3,0v4.9h0.6c0.8,0,1.5-0.1,2.3-0.4C164.2,36.7,164.6,36,164.6,35
	L164.6,35z M182.5,39.9l-0.1,4h-10.8V43c0.7,0,1.2-0.1,1.4-0.3c0.2-0.2,0.3-0.6,0.3-1.1V34c0-0.3,0-0.5-0.1-0.8
	c-0.1-0.2-0.3-0.4-0.5-0.5c-0.4-0.1-0.8-0.2-1.2-0.2v-0.8h10l0.2,3.1H181c-0.2-0.7-0.4-1.2-0.6-1.5c-0.2-0.3-0.5-0.5-0.8-0.6
	c-0.4-0.1-0.9-0.1-1.4-0.1H176V37h1.2c0.3,0,0.6,0,0.9-0.1c0.2-0.1,0.4-0.2,0.4-0.4c0.1-0.3,0.2-0.6,0.2-1h0.9v4h-0.8
	c0-0.3-0.1-0.7-0.2-1c-0.1-0.2-0.2-0.4-0.5-0.4c-0.3-0.1-0.6-0.1-0.9-0.1H176v2.8c0,0.3,0,0.7,0,1c0,0.2,0.1,0.4,0.2,0.5
	c0.1,0.2,0.3,0.3,0.5,0.3c0.3,0.1,0.7,0.1,1,0.1h1c0.4,0,0.8-0.1,1.2-0.2c0.4-0.1,0.7-0.4,1.1-0.8c0.4-0.4,0.6-1.1,0.7-2L182.5,39.9
	z M195.5,43.7h-0.8c-0.1-0.5-0.3-1-0.6-1.4c-0.5,0.5-1,0.9-1.5,1.2c-0.6,0.3-1.4,0.5-2.4,0.5c-1.1,0-2.1-0.3-3-0.8
	c-0.9-0.5-1.7-1.3-2.2-2.2c-0.6-1-0.8-2.1-0.8-3.2c0-0.8,0.1-1.6,0.5-2.4c0.3-0.8,0.7-1.4,1.3-2c0.6-0.6,1.2-1.1,2-1.4
	c0.8-0.3,1.7-0.5,2.5-0.5c1.5,0,2.8,0.5,3.7,1.5c0.2-0.4,0.3-0.7,0.4-1.1h0.8l0.1,4.4h-0.9c-0.1-0.7-0.4-1.4-0.8-2
	c-0.4-0.6-0.9-1-1.4-1.3c-0.5-0.3-1.1-0.5-1.7-0.5c-0.6,0-1.3,0.2-1.8,0.6c-0.6,0.4-1,1-1.3,1.7c-0.3,0.8-0.5,1.7-0.5,2.8
	c0,1.1,0.1,2,0.4,2.8c0.3,0.7,0.6,1.3,0.9,1.7c0.3,0.3,0.7,0.6,1.1,0.8c0.3,0.1,0.7,0.2,1.1,0.2c0.7,0,1.4-0.2,2-0.6
	c0.6-0.4,1.1-0.9,1.4-1.5c0.4-0.5,0.6-1.1,0.7-1.8h0.9L195.5,43.7z M211.3,37.8c0,1.1-0.3,2.1-0.8,3.1c-0.5,1-1.3,1.8-2.3,2.3
	c-1,0.6-2.2,0.9-3.6,0.9c-1,0-2.1-0.2-3-0.5c-0.8-0.3-1.5-0.8-2.1-1.5c-0.5-0.6-0.9-1.3-1.2-2c-0.3-0.7-0.4-1.5-0.4-2.2
	c0-1.1,0.3-2.1,0.8-3c0.5-1,1.3-1.8,2.3-2.3c1-0.6,2.2-0.9,3.6-0.9c1.3,0,2.4,0.2,3.3,0.6c0.8,0.4,1.5,0.9,2.1,1.6
	c0.5,0.6,0.8,1.3,1.1,2C211.2,36.4,211.3,37.1,211.3,37.8z M208.4,37.8c0-0.6-0.1-1.3-0.2-1.9c-0.1-0.6-0.3-1.1-0.6-1.6
	c-0.3-0.5-0.7-0.9-1.2-1.2c-0.6-0.3-1.2-0.5-1.9-0.4c-1,0-1.8,0.3-2.4,0.8c-0.6,0.5-1,1.2-1.2,1.9c-0.2,0.8-0.3,1.7-0.3,2.5
	c0,0.5,0,1,0.1,1.6c0.1,0.6,0.2,1.1,0.5,1.7c0.3,0.6,0.7,1.1,1.2,1.4c0.6,0.4,1.3,0.6,2.1,0.6c0.9,0,1.6-0.2,2.1-0.6
	c0.5-0.4,0.9-0.9,1.2-1.5c0.2-0.5,0.4-1.1,0.5-1.7C208.4,38.8,208.4,38.3,208.4,37.8L208.4,37.8z M225.1,32.6c-0.3,0-0.5,0-0.7,0.1
	c-0.2,0.1-0.4,0.2-0.5,0.3c-0.2,0.2-0.3,0.4-0.4,0.6c-0.1,0.3-0.3,0.7-0.6,1.2l-3.9,9.2h-0.8l-4.1-9.6c-0.2-0.4-0.4-0.8-0.6-1.2
	c-0.1-0.2-0.3-0.4-0.6-0.5c-0.3-0.1-0.7-0.1-1.1-0.1v-0.8h6.1v0.8c-0.4,0-0.8,0-1.2,0.1c-0.2,0.1-0.3,0.2-0.3,0.5
	c0,0.3,0.1,0.6,0.2,0.9l2.8,6.5l2.6-6c0.2-0.5,0.3-0.9,0.3-1.1c0-0.4-0.1-0.6-0.4-0.7c-0.4-0.1-0.8-0.2-1.2-0.2v-0.8h4.5L225.1,32.6
	z M238.1,39.9l-0.1,4h-10.8V43c0.7,0,1.2-0.1,1.4-0.3c0.2-0.2,0.3-0.6,0.3-1.1V34c0-0.3,0-0.5-0.1-0.8c-0.1-0.2-0.3-0.4-0.5-0.5
	c-0.4-0.1-0.8-0.2-1.2-0.2v-0.8h10l0.2,3.1h-0.8c-0.2-0.7-0.4-1.2-0.6-1.5c-0.2-0.3-0.5-0.5-0.8-0.6c-0.4-0.1-0.9-0.1-1.3-0.1h-2.3
	V37h1.2c0.3,0,0.6,0,0.9-0.1c0.2-0.1,0.4-0.2,0.4-0.4c0.1-0.3,0.2-0.6,0.2-1h0.9v4h-0.8c0-0.3-0.1-0.7-0.2-1
	c-0.1-0.2-0.2-0.4-0.5-0.4c-0.3-0.1-0.6-0.1-0.9-0.1h-1.2v2.8c0,0.5,0,0.8,0,1c0,0.2,0.1,0.4,0.2,0.5c0.1,0.2,0.3,0.3,0.5,0.3
	c0.3,0.1,0.7,0.1,1,0.1h1c0.4,0,0.8-0.1,1.2-0.2c0.4-0.1,0.7-0.4,1.1-0.8s0.6-1.1,0.7-2L238.1,39.9z M253.3,43.8h-3.2
	c-0.2-0.2-0.3-0.4-0.4-0.6c-0.2-0.2-0.4-0.5-0.6-0.9c-0.2-0.3-0.4-0.6-0.5-0.8l-0.8-1.4c-0.2-0.4-0.5-0.8-0.8-1.2
	c-0.2-0.2-0.4-0.4-0.6-0.4c-0.4-0.1-0.8-0.1-1.2-0.1h-0.5v3.1c0,0.3,0,0.5,0.1,0.8c0.1,0.2,0.3,0.4,0.5,0.5c0.4,0.1,0.8,0.2,1.2,0.2
	v0.8h-6V43c0.7,0,1.2-0.1,1.4-0.3c0.2-0.2,0.3-0.6,0.3-1.1V34c0-0.5-0.1-0.9-0.3-1.1c-0.2-0.2-0.7-0.3-1.4-0.3v-0.8l2.8-0.1
	c0.2,0,0.5,0,0.7,0c0.3,0,0.5,0,0.8,0c0.2,0,0.5,0,0.9,0c0.6,0,1.2,0.1,1.7,0.1c0.4,0,0.8,0.1,1.2,0.2c0.5,0.1,0.9,0.3,1.3,0.6
	c0.4,0.3,0.7,0.6,1,1c0.3,0.5,0.4,1,0.4,1.5c0,0.4-0.1,0.8-0.3,1.2c-0.2,0.4-0.5,0.8-0.8,1c-0.5,0.3-1,0.6-1.5,0.7
	c0.4,0.2,0.8,0.6,1.1,0.9c0.3,0.4,0.8,1.1,1.4,2.1c0.3,0.5,0.6,0.9,0.9,1.3c0.2,0.2,0.4,0.4,0.7,0.6c0.2,0.1,0.5,0.2,0.8,0.2
	L253.3,43.8z M248.3,35c0-1-0.3-1.6-0.9-1.9c-0.6-0.3-1.3-0.5-2.3-0.5c-0.1,0-0.2,0-0.3,0c-0.1,0-0.2,0-0.3,0v4.9h0.6
	c0.8,0,1.5-0.1,2.3-0.4C248,36.7,248.3,36,248.3,35L248.3,35z M265,32.6c-0.3,0-0.6,0.1-0.8,0.2c-0.3,0.2-0.5,0.4-0.6,0.6
	c-0.2,0.3-0.5,0.7-1,1.4l-2.5,3.9v2.9c0,0.3,0,0.5,0.1,0.8c0.1,0.2,0.3,0.4,0.5,0.5c0.4,0.1,0.8,0.2,1.2,0.2v0.8h-6.1V43
	c0.4,0,0.8,0,1.1-0.1c0.2-0.1,0.4-0.2,0.5-0.4c0.1-0.3,0.1-0.6,0.1-0.8v-2.7l-3-5.1l-0.1-0.1c0,0,0-0.1-0.1-0.1
	c-0.3-0.4-0.5-0.7-0.7-0.8c-0.3-0.1-0.6-0.2-0.9-0.2v-0.8h5.7v0.8c-0.2,0-0.5,0-0.7,0c-0.1,0-0.3,0.1-0.4,0.1
	c-0.1,0.1-0.2,0.2-0.2,0.4c0,0.1,0,0.3,0.1,0.4c0.1,0.2,0.2,0.5,0.5,0.9l1.9,3.2l1.8-2.8c0.4-0.6,0.6-1.1,0.6-1.3
	c0-0.4-0.1-0.6-0.4-0.7c-0.3-0.1-0.7-0.2-1-0.1v-0.8h4.4L265,32.6z M15.9,35.2h-0.8c-0.1-0.7-0.2-1.3-0.5-1.7
	c-0.2-0.3-0.5-0.5-0.8-0.7c-0.3-0.1-0.7-0.1-1-0.1h-1.5v8.8c0,0.3,0,0.6,0.1,0.8c0.1,0.2,0.3,0.4,0.5,0.5C12.2,43,12.6,43,13,43v0.8
	H6.9V43c0.7,0,1.2-0.1,1.4-0.3c0.2-0.2,0.3-0.6,0.3-1.1v-8.8H7.4c-0.4,0-0.8,0-1.3,0.1c-0.4,0.1-0.7,0.3-0.9,0.7
	c-0.3,0.4-0.4,0.9-0.4,1.7H4v-3.4h11.9L15.9,35.2z M27.5,43.8h-5.7V43c0.4,0,0.7,0,1.1-0.1c0.2-0.1,0.4-0.3,0.3-0.5
	c0-0.2,0-0.4-0.1-0.5l-0.6-1.4h-3.9l-0.3,0.8c-0.1,0.3-0.2,0.6-0.2,1c0,0.4,0.1,0.6,0.4,0.7c0.3,0.1,0.6,0.1,1,0.1v0.8h-4.2V43
	c0.3,0,0.6-0.1,0.8-0.2c0.3-0.2,0.5-0.4,0.7-0.7c0.3-0.5,0.5-1,0.7-1.5l3.5-9.1h0.9l3.7,9.4c0.3,0.7,0.5,1.1,0.6,1.3
	c0.1,0.2,0.3,0.4,0.5,0.5c0.3,0.1,0.6,0.2,0.9,0.2L27.5,43.8z M22.2,39.6l-1.7-4.2l-1.6,4.2H22.2z M40.6,39.8l-0.1,4H29.7V43
	c0.7,0,1.2-0.1,1.4-0.3s0.3-0.6,0.3-1.1V34c0-0.3,0-0.6-0.1-0.8c-0.1-0.2-0.3-0.4-0.5-0.5c-0.4-0.1-0.8-0.2-1.2-0.2v-0.8h6.1v0.8
	c-0.4,0-0.8,0-1.1,0.2c-0.2,0.1-0.4,0.2-0.5,0.4C34,33.4,34,33.7,34,34v7c0,0.4,0,0.8,0.1,1.2c0.1,0.2,0.2,0.4,0.4,0.5
	c0.2,0.1,0.6,0.2,1.2,0.2c0.6,0,1.2-0.1,1.8-0.2c0.5-0.1,1-0.4,1.4-0.8c0.4-0.4,0.7-1.1,0.8-2.1L40.6,39.8z M53.6,40.6
	c0,0.6-0.2,1.2-0.5,1.7c-0.3,0.4-0.8,0.8-1.3,1c-0.5,0.2-1,0.4-1.5,0.4c-0.5,0.1-1,0.1-1.5,0.1h-6.1V43c0.4,0,0.8,0,1.1-0.2
	c0.2-0.1,0.4-0.2,0.5-0.5c0.1-0.3,0.1-0.5,0.1-0.8V34c0-0.5-0.1-0.9-0.3-1.1c-0.2-0.2-0.7-0.3-1.4-0.3v-0.8l2.5-0.1l1.9,0
	c0.5,0,0.9,0,1.1,0h0.3c0.7,0,1.3,0.1,1.9,0.2c0.7,0.1,1.3,0.4,1.8,0.9c0.6,0.5,0.8,1.1,0.8,2c0,0.6-0.2,1.2-0.7,1.6
	c-0.5,0.5-1.2,0.8-2.2,1.1c0.6,0.1,1.3,0.3,1.8,0.6c0.5,0.3,0.9,0.6,1.2,1.1C53.5,39.6,53.6,40.1,53.6,40.6z M50.6,34.7
	c0-0.8-0.4-1.5-1.2-1.8c-0.5-0.2-0.9-0.3-1.4-0.3H47v4.3h0.7c1,0,1.7-0.2,2.1-0.6C50.3,35.9,50.6,35.3,50.6,34.7L50.6,34.7z
	 M50.9,40.5c0-0.8-0.2-1.5-0.6-1.9c-0.4-0.5-1-0.7-1.8-0.7H47V41c0,0.3,0,0.7,0.1,1c0,0.2,0.2,0.4,0.4,0.6c0.2,0.1,0.6,0.2,1,0.2
	c0.6,0,1.2-0.2,1.7-0.6C50.6,41.9,50.9,41.3,50.9,40.5L50.9,40.5z M68.6,37.8c0,1.1-0.3,2.1-0.8,3.1c-0.5,1-1.3,1.8-2.3,2.3
	c-1,0.6-2.2,0.9-3.6,0.9c-1,0-2.1-0.2-3-0.5c-0.8-0.3-1.5-0.8-2.1-1.5c-0.5-0.6-0.9-1.3-1.2-2c-0.3-0.7-0.4-1.5-0.4-2.2
	c0-1.1,0.3-2.1,0.8-3c0.5-1,1.3-1.8,2.3-2.3c1-0.6,2.2-0.9,3.6-0.9c1.3,0,2.4,0.2,3.3,0.6c0.8,0.4,1.5,0.9,2.1,1.6
	c0.5,0.6,0.8,1.3,1.1,2C68.5,36.4,68.6,37.1,68.6,37.8z M65.7,37.8c0-0.6,0-1.3-0.2-1.9c-0.1-0.6-0.3-1.1-0.6-1.6
	c-0.3-0.5-0.7-0.9-1.2-1.2c-0.6-0.3-1.2-0.5-1.9-0.4c-1,0-1.8,0.3-2.4,0.8c-0.6,0.5-1,1.2-1.2,1.9c-0.2,0.8-0.3,1.7-0.3,2.5
	c0,0.5,0,1,0.1,1.6c0.1,0.6,0.2,1.1,0.5,1.7c0.3,0.6,0.7,1.1,1.2,1.4c0.6,0.4,1.3,0.6,2.1,0.6c0.9,0,1.6-0.2,2.1-0.6
	c0.5-0.4,0.9-0.9,1.2-1.5c0.2-0.5,0.4-1.1,0.5-1.7C65.7,38.8,65.7,38.3,65.7,37.8z M82,35.2h-0.8c-0.1-0.7-0.2-1.3-0.5-1.7
	c-0.2-0.3-0.5-0.5-0.8-0.7c-0.3-0.1-0.7-0.1-1-0.1h-1.5v8.8c0,0.3,0,0.6,0.1,0.8c0.1,0.2,0.3,0.4,0.5,0.5C78.3,43,78.6,43,79,43v0.8
	H73V43c0.7,0,1.2-0.1,1.4-0.3c0.2-0.2,0.3-0.6,0.3-1.1v-8.8h-1.3c-0.4,0-0.8,0-1.3,0.1c-0.4,0.1-0.7,0.3-0.9,0.7
	c-0.3,0.4-0.4,0.9-0.4,1.7H70v-3.4H82V35.2z M95.5,35.2h-0.8c-0.1-0.7-0.2-1.3-0.5-1.7c-0.2-0.3-0.5-0.5-0.8-0.7
	c-0.3-0.1-0.7-0.1-1-0.1h-1.5v8.8c0,0.3,0,0.6,0.1,0.8c0.1,0.2,0.3,0.4,0.5,0.5c0.4,0.1,0.8,0.2,1.1,0.2v0.8h-6.1V43
	c0.7,0,1.2-0.1,1.4-0.3c0.2-0.2,0.3-0.6,0.3-1.1v-8.8H87c-0.4,0-0.8,0-1.3,0.1c-0.4,0.1-0.7,0.3-0.9,0.7c-0.3,0.4-0.4,0.9-0.4,1.7
	h-0.8v-3.4h11.9V35.2z M123.1,56.3c0.1,0.1,0.7,0.3,0.9,0.3c-0.2,0-0.3,0.1-0.5,0.1c-2.2-1-4.3-2.2-6.4-3.6
	c-2.3-1.5-4.6-3.4-6.3-5.6c-1-1.3-1.7-2.7-2.1-4.2v-0.9h0.7v0.4h0.1v-0.6h0.4v-0.1h0.4v-2.2l0.9-0.2h0.5v2.9h0.6V41h0.3v-0.2h0.1V41
	h0.3v-6.4h0.3v-0.2h0.1v-0.2c0,0,0-0.2,0.3-0.2v-0.6l-0.1-0.1h0.1v-0.1h0.1v0.1l0.1,0v0.1h0.1v-0.1h0.4v0.1h0.1v-0.1h0.1v-0.1h0.1
	v0.1h0.1l-0.1,0.1v0.1l0.1,0.1V34h0.1l0.4,0.6v0.2l0.3,0.3v7.1h0.1v2h0.6V43h0.1v-1.2h0.3v-3h0.6v-0.5h0.2v-0.1h0.1v0.1h0.1v-0.1
	h0.1v0.1h0.1v0.5h0.6v0.6h1.2v0.1h0.2V42h0.1v1.6h0.6v-5.4l0.2,0.1c0.4,0.2,0.7,0.4,1.1,0.6l0.3,0.2v2.4c-0.2,0.3-0.4,0.7-0.5,1.1
	c0,0.1-0.1,0.3-0.1,0.4v0l0,0.2l0,0.1l0,0.3c0,0.1,0,0.2,0,0.2c0,0,0,0.1,0,0.1c0,0.1,0,0.2,0,0.3c0,0.6,0.2,1.3,0.6,1.8
	c0.1,0.1,0.1,0.2,0.2,0.3l0.1,0.1c0,0.1,0.1,0.1,0.1,0.1l0,0l0,0l0,0l0.1,0c0,0,0.1,0.1,0.1,0.1l0.1,0.1c0.1,0.1,0.2,0.2,0.3,0.2
	l0.2,0.1l0.2,0.1c0.1,0.1,0.3,0.2,0.4,0.2s0.2,0.1,0.3,0.2l0,0c-0.3,0.2-0.6,0.4-0.9,0.7c-0.1,0-0.1,0.1-0.2,0.1
	c-0.1,0.1-0.3,0.3-0.4,0.4c-0.3,0.3-0.5,0.6-0.7,0.9l-0.1,0.2l-0.1,0.1l0,0.1c0,0.1-0.1,0.2-0.1,0.3l0,0.1l-0.1,0.4l0,0.1
	c0,0,0,0,0,0l0,0l0,0.1c0,0-0.1,0.3-0.1,0.3l0,0.1l0,0l0,0.1c0,0.1,0,0.2,0,0.3v0v0c0,0.1,0,0.2,0,0.2c0,0,0,0.1,0,0.1
	c0,0,0,0,0,0.1c0,0,0,0.1,0,0.1v0c0,0,0,0.1,0,0.1c0,0.1,0,0.2,0,0.3c0,0.1,0,0.2,0.1,0.4l0,0.1l0,0l0,0v0l0.1,0.3
	c0,0.1,0,0.1,0.1,0.2l0.1,0.1c0.2,0.4,0.5,0.8,0.8,1.2C122.3,55.8,122.7,56.1,123.1,56.3z M123.3,44.5c0,0,0-0.1,0-0.1
	c0,0,0-0.1,0-0.1s0-0.1,0-0.1c0-0.1,0-0.1,0-0.1c0,0,0-0.1,0-0.1l0.1-0.3l0.1-0.2v0c0-0.1,0.1-0.2,0.1-0.2c0.1-0.2,0.2-0.3,0.3-0.5
	c0.1-0.1,0.2-0.2,0.3-0.3l0,0.9v0.4h0l0.1,2.3l0,0l-0.2-0.1c-0.1,0-0.1-0.1-0.1-0.1c0,0-0.1-0.1-0.1-0.1c0,0,0,0,0,0l0,0
	c0,0,0,0,0-0.1l0,0l0,0c0,0,0-0.1-0.1-0.1c0,0-0.1-0.1-0.1-0.1l0,0l-0.1-0.1l-0.1-0.1v0c0,0,0-0.1,0-0.1c0,0,0-0.1,0-0.1
	c0,0,0,0,0,0L123.3,44.5z M124.3,49.6l0.2,5.9c-0.5-0.2-0.9-0.6-1.3-1c-0.2-0.2-0.3-0.4-0.4-0.7c-0.1-0.1-0.1-0.3-0.1-0.4
	c0-0.1,0-0.3-0.1-0.4v0c0-0.1,0-0.1,0-0.2c0,0,0-0.1,0-0.2c0,0,0,0,0,0v-0.1v-0.1c0-0.1,0-0.1,0-0.2l0.1-0.3l0-0.1v0
	c0-0.1,0-0.1,0-0.2c0,0,0-0.1,0-0.2l0,0l0-0.1l0.1-0.2l0-0.1l0-0.1c0-0.1,0.1-0.1,0.1-0.2l0-0.1l0.1-0.2
	C123.5,50.3,123.9,49.9,124.3,49.6z M127.3,45.9L127.3,45.9l0.1-3.5c0.1,0.1,0.2,0.2,0.3,0.3c0.1,0.2,0.2,0.3,0.3,0.5
	c0,0.1,0.1,0.1,0.1,0.2l0.1,0.2l0.1,0.3c0,0,0,0.1,0,0.1c0,0,0,0.1,0,0.1c0,0,0,0.1,0,0.1v0.1c0,0,0,0.1,0,0.1l0,0.2c0,0,0,0,0,0
	l0,0c0,0,0,0.1,0,0.1c0,0,0,0.1,0,0.1l0,0l-0.1,0.1l-0.1,0.1v0c0,0-0.1,0.1-0.1,0.1c0,0,0,0.1-0.1,0.1l0,0l0,0l0,0.1c0,0,0,0,0,0
	l-0.1,0.1c-0.1,0-0.1,0.1-0.1,0.1l0,0L127.3,45.9z M128.7,40.4l-0.1-0.1h0.3v0.4C128.8,40.6,128.8,40.5,128.7,40.4z M127,55.5
	l0.2-5.9c0.4,0.3,0.8,0.7,1.1,1.1l0.1,0.2l0,0l0.1,0.2l0,0.1l0,0.1c0,0.1,0,0.1,0.1,0.2l0,0.1l0.1,0.2c0,0.1,0,0.1,0,0.2v0l0,0.1
	l0.1,0.3c0,0.1,0,0.1,0,0.2v0.1l0,0.1c0,0,0,0,0,0v0.2c0,0.1,0,0.1,0,0.2v0c0,0.1,0,0.3-0.1,0.4c0,0.1-0.1,0.3-0.1,0.4
	c-0.1,0.3-0.2,0.5-0.4,0.7C127.9,54.9,127.5,55.3,127,55.5z M142.8,42.3C142.8,42.3,142.8,42.3,142.8,42.3c-0.2,1.9-1,3.7-2.3,5.3
	c-3.2,4.3-9.1,7.5-12.4,9.1c0,0-0.1,0-0.1,0c0.1-0.1,0.4-0.2,0.5-0.3c0.4-0.2,0.8-0.5,1.1-0.8c0.3-0.3,0.6-0.8,0.8-1.2l0.1-0.1
	c0-0.1,0.1-0.1,0.1-0.2l0.1-0.2v0l0,0l0,0l0-0.1c0-0.1,0-0.2,0.1-0.4c0-0.1,0-0.2,0-0.3c0,0,0-0.1,0-0.2v0c0,0,0-0.1,0-0.1
	c0,0,0-0.1,0-0.1c0,0,0-0.1,0-0.1c0-0.1,0-0.2,0-0.2v0v0c0-0.1,0-0.2-0.1-0.3l0-0.1l0-0.1l0,0c0,0-0.1-0.4-0.1-0.4l0,0
	c0,0,0,0,0-0.1l0-0.1l-0.1-0.4l0-0.1c0-0.1-0.1-0.2-0.1-0.3l0-0.1l-0.1-0.1l-0.1-0.2c-0.2-0.3-0.5-0.6-0.7-0.9
	c-0.1-0.1-0.3-0.3-0.4-0.4c-0.1,0-0.1-0.1-0.2-0.1c-0.3-0.2-0.6-0.5-1-0.7l0,0c0.1-0.1,0.2-0.1,0.3-0.2c0.1-0.1,0.3-0.2,0.4-0.2
	l0.2-0.1l0.2-0.1c0.1-0.1,0.2-0.2,0.3-0.2l0.1-0.1c0,0,0.1-0.1,0.1-0.1l0.1,0l0,0l0,0l0,0c0,0,0.1-0.1,0.1-0.1l0.1-0.1
	c0.1-0.1,0.2-0.2,0.2-0.3c0.4-0.5,0.5-1.1,0.6-1.8c0-0.1,0-0.2,0-0.3c0,0,0-0.1,0-0.1c0-0.1,0-0.2,0-0.3l0-0.3l0-0.1l0-0.2v0
	c0-0.1-0.1-0.3-0.1-0.4c-0.2-0.5-0.5-1-0.8-1.5c-0.1-0.1-0.1-0.2-0.2-0.2h0.2v-0.6h0.5v-0.5h0.5v0.5h0.5v0.6h0.1v0.7h-0.1V43
	l0.1,0.1h0.2v1.1h0.4v-2.3h0.1v-2.2h0.1v-1.8c0.1-0.1,0.3-0.2,0.4-0.3c0.2-0.2,0.4-0.4,0.5-0.6h0.2l0.1-0.1h0.3v0.1h0.4l0.3,0.2v7
	h0.6V39h0.2v-4.1h2.4v3.9h0.6V39h0.1v-4.1h0.2v-0.3h0.3v-0.6h0.3v-0.2h0.2v-0.6h0v-0.1h0.2v-0.1h-0.1V33h0.1v-0.2h0.1V33h0.1V33
	h-0.1v0.1h0.2v0.7h0.4V34h0.3v0.6h0.3v0.2h0.2v6.6h2v0.2h0.2v0.6L142.8,42.3z M124.6,59.7L124.6,59.7c-0.5-0.3-1.2-0.6-2.2-1.2
	c-2.1-1.1-4.1-2.4-6-3.8c-6.1-4.4-9.1-8.8-9.1-13.2V31.3c-0.2,0-0.5-0.1-0.7-0.2v10.4c0,4.6,3.2,9.3,9.4,13.8c2,1.4,4,2.7,6.1,3.8
	c1.1,0.6,1.8,0.9,2.3,1.2v-0.7L124.6,59.7z M143.4,13.5c-11.6-2.9-23.7-2.9-35.3,0l-1.6,0.4v7.9c0.2-0.1,0.5-0.1,0.7-0.2v-7.1l1-0.2
	c11.5-2.8,23.5-2.8,35,0l1,0.2v7l0.7,0.2v-7.8L143.4,13.5z M144.2,31.3v10.3c0,9.2-14.1,16.5-17.3,18.1v0.1h0.2v0.6
	c3.1-1.5,6-3.3,8.8-5.3c6-4.4,9-9,9-13.5V31.1C144.7,31.2,144.5,31.3,144.2,31.3L144.2,31.3z M128.9,40.7v0.2h0.1
	C129,40.8,128.9,40.7,128.9,40.7z M128.9,40.7v0.2h0.1C129,40.8,128.9,40.7,128.9,40.7z M126.7,61.4h-1.9v-1.2h0.3l-0.1-2.9v-0.1
	c0.1,0,0.2,0,0.3-0.1l0.1,0l0.2,0c0.2,0,0.3,0.1,0.5,0.1l0.1,0h0l0.4,0.1l-0.1,2.9h0.2L126.7,61.4z M126.8,49.1l-0.2,6.9l0,0h0l0,0
	l0,0l0,0c-0.1,0-0.2,0.1-0.4,0.1l-0.3,0.1l-0.1,0l-0.1,0c-0.2-0.1-0.3-0.1-0.5-0.2h0l-0.1-0.1l-0.2-6.8c0.1-0.1,0.2-0.2,0.4-0.2
	l0.1,0c0.2-0.1,0.3-0.2,0.5-0.3l0,0l0.1,0.1c0.1,0.1,0.3,0.2,0.5,0.3c0,0,0,0,0.1,0c0.1,0,0.1,0.1,0.2,0.1
	C126.7,49,126.7,49,126.8,49.1z M127,41.7l-0.1,4.8c-0.1,0-0.1,0.1-0.2,0.1c-0.2,0.1-0.5,0.2-0.7,0.4l-0.1,0.1l0,0l-0.2-0.1
	c-0.2-0.1-0.5-0.2-0.7-0.4l-0.1-0.1l-0.1-0.1l-0.1-4.7l0.1-0.1c0.1-0.1,0.2-0.2,0.3-0.2l0.1-0.1c0.2-0.1,0.4-0.3,0.6-0.4l0.1-0.1
	l0,0l0,0c0.2,0.1,0.4,0.3,0.7,0.4l0.1,0.1C126.7,41.5,126.9,41.6,127,41.7z M158.9,23.5c-0.1,0.5-0.4,0.9-0.9,1.3
	c-2.3,1.5-9.2,1.6-17.2-1.4c-0.8-0.3-1.6-0.6-2.3-0.9l-0.2-0.1l0,0.2c0,0.1,0,0.2,0,0.3V23l0.1,0c0.8,0.3,1.5,0.6,2.3,0.9
	c4.3,1.6,8.8,3.1,13.2,2.6c-0.1,0.4-0.4,0.8-0.8,0.9c-1.9,1.1-7,0.8-13.2-1.7c-0.6-0.2-1.2-0.5-1.7-0.8c-0.1-0.1-0.3-0.1-0.4-0.2
	l-0.1,0l-0.1,0.1l-0.1,0.1l-0.1,0.1l0.1,0.1l0.8,0.4c0.5,0.2,0.9,0.4,1.2,0.6c2.9,1.3,6.4,2.6,9.8,2.6c-0.1,0.3-0.4,0.6-0.7,0.7
	c-1.8,0.9-6.2,0-10.6-2l-0.1-0.1c-0.7-0.3-1.3-0.6-1.9-1l-0.1,0l-0.1,0c0,0-0.1,0.1-0.1,0.1l-0.1,0.1l0.2,0.1c0.7,0.4,1.3,0.7,1.9,1
	c0.6,0.3,1.2,0.6,1.7,0.8c2.3,1.1,4.2,1.6,6,1.7c-0.1,0.2-0.3,0.4-0.5,0.5c-1.3,0.6-4.1,0-7.3-1.5c-0.5-0.2-1-0.5-1.5-0.8
	c-0.6-0.3-1.2-0.7-1.8-1l0,0l-0.1,0l-0.1,0.1l-0.2,0.1l0.2,0.1c0.7,0.4,1.2,0.8,1.7,1.1c0.8,0.5,1.6,0.9,2.5,1.4
	c1.1,0.6,2.4,1,3.6,1.2c-0.1,0.1-0.2,0.2-0.4,0.3c-0.9,0.3-2.7,0-4.9-1.1c-0.8-0.4-1.6-0.8-2.3-1.3c-0.5-0.3-1.1-0.7-1.6-1l0,0
	l-0.1,0l-0.1,0l-0.2,0.1l0.1,0.1c0.5,0.4,1,0.8,1.5,1.1c0.9,0.6,1.8,1.1,2.7,1.6c0.7,0.3,1.4,0.6,2.2,0.8c-0.4,0.5-1.8,0.3-3.6-0.5
	c-1-0.5-1.9-1-2.8-1.6c-0.4-0.3-0.9-0.6-1.3-0.9l0,0l0,0l-0.3,0.1l0.2,0.1c0.4,0.4,0.8,0.7,1.2,0.9c0.9,0.7,1.8,1.3,2.8,1.8
	c0.4,0.2,0.8,0.3,1.1,0.4c-0.4,0.3-1.2,0.1-2.4-0.4c-1-0.5-2-1.1-2.9-1.9c-0.3-0.3-0.7-0.5-1-0.8l0,0l0,0l-0.1,0l-0.2,0l0.2,0.1
	c0.3,0.3,0.6,0.6,0.9,0.8c1,0.9,1.9,1.5,2.8,1.9c0.1,0.1,0.3,0.1,0.4,0.2c-0.3,0.2-0.8,0.1-1.6-0.3c-0.1,0-0.1-0.1-0.2-0.1l-0.1,0
	c-1-0.5-1.8-1.1-2.6-1.9c-0.2-0.2-0.5-0.4-0.7-0.6l0,0l-0.4,0l0.2,0.2c0.2,0.2,0.4,0.4,0.6,0.6c1,0.9,1.8,1.6,2.7,2
	c-0.2,0.1-0.6,0-1-0.2c-0.8-0.4-1.8-1.1-2.8-2.1c-0.1-0.1-0.2-0.2-0.4-0.4l0,0l0,0.4l0,0.1c0.6,0.7,1.3,1.3,2.1,1.8
	c-0.1,0-0.2-0.1-0.3-0.1c-0.7-0.4-1.3-0.8-1.9-1.2l-0.2,7.4l-0.1,0.1l-0.6,0.4l-0.6,0.4l-0.1,0c-0.2-0.2-0.4-0.3-0.7-0.4l-0.1-0.1
	l-0.5-0.3l-0.2-0.1l-0.2-7.3c-0.6,0.4-1.2,0.8-1.8,1.2c-0.1,0-0.2,0.1-0.3,0.1c0.8-0.5,1.5-1.1,2.1-1.8l0-0.4
	c-0.1,0.1-0.2,0.2-0.3,0.3c-1,1-2,1.7-2.8,2.1c-0.5,0.2-0.8,0.3-1,0.2c0.9-0.4,1.7-1.1,2.7-2c0.2-0.2,0.4-0.4,0.6-0.6l0.2-0.2
	l-0.4,0l0,0c-0.2,0.2-0.4,0.4-0.7,0.6c-0.8,0.7-1.7,1.4-2.6,1.9l-0.1,0l-0.2,0.1c-0.7,0.3-1.3,0.4-1.6,0.3c0.1-0.1,0.3-0.1,0.4-0.2
	c0.9-0.4,1.8-1,2.8-1.9c0.3-0.2,0.6-0.5,0.9-0.8l0.2-0.1l-0.2,0c0,0-0.1,0-0.1,0l0,0l0,0c-0.3,0.3-0.6,0.5-1,0.8
	c-0.9,0.7-1.9,1.4-2.9,1.9c-1.1,0.5-2,0.7-2.4,0.4c0.4-0.1,0.8-0.3,1.1-0.4c1-0.5,1.9-1.1,2.8-1.8c0.4-0.3,0.7-0.6,1.2-1l0.2-0.1
	l-0.3-0.1l0,0l0,0c-0.4,0.3-0.8,0.7-1.3,0.9c-0.9,0.6-1.8,1.2-2.8,1.6c-1.8,0.8-3.1,1-3.6,0.6c0.7-0.2,1.5-0.4,2.2-0.8
	c0.9-0.5,1.9-1,2.7-1.6c0.4-0.3,0.9-0.7,1.5-1.1l0.1-0.1L119,28l-0.1,0l-0.1,0l0,0c-0.5,0.4-1,0.7-1.6,1c-0.8,0.5-1.5,0.9-2.3,1.3
	c-0.9,0.4-1.8,0.8-2.8,1l-0.3-0.8c0.5-0.2,0.9-0.4,1.4-0.6c0.9-0.4,1.7-0.9,2.5-1.4c0.5-0.3,1-0.7,1.7-1.1l0.2-0.1l-0.2-0.1
	l-0.1-0.1l-0.1,0l0,0c-0.6,0.4-1.2,0.7-1.8,1c-0.5,0.3-1,0.5-1.5,0.8c-0.8,0.4-1.6,0.7-2.4,1l-1.1-0.9l0,0c0.5-0.2,1.1-0.5,1.7-0.7
	c0.5-0.3,1.1-0.5,1.7-0.9c0.6-0.3,1.1-0.6,1.9-1l0.1-0.1l-0.1-0.1l-0.1-0.1l-0.1,0l-0.1,0c-0.6,0.3-1.3,0.7-1.9,1l-0.1,0.1
	c-1.1,0.5-2.3,1-3.4,1.4l-0.8-1.4l0,0c0.9-0.4,1.9-0.8,2.7-1.1c0.4-0.2,0.8-0.4,1.2-0.6l0.8-0.4l0.1-0.1L114,25l-0.1-0.1l-0.1-0.1
	l-0.1,0l-0.4,0.2c-0.6,0.3-1.1,0.5-1.7,0.8c-0.9,0.4-1.9,0.7-2.8,1l-1-1.8l0,0c1-0.3,1.9-0.7,2.9-1c0.8-0.3,1.5-0.6,2.3-0.9l0.1,0
	V23c0-0.1,0-0.2,0-0.3l0-0.2l-0.2,0.1c-0.7,0.3-1.5,0.7-2.3,1c-1,0.4-2.1,0.7-3,1l-0.7-1.3l0.5,1.3c-6.5,1.9-11.9,1.7-13.9,0.4
	c-0.5-0.4-0.9-0.8-0.9-1.3c5.7,1.2,11.6-0.6,17.9-2.4l1.5-0.4c0.7-0.2,1.3-0.4,1.8-0.5c2.1-0.6,2.6-0.8,3.9-0.6
	c0.1,0,0.2,0.1,0.3,0.1c0.1,0.1,0.2,0.3,0.3,0.5c0.1,0.3,0.1,0.7,0,1c-0.1,0.9-0.1,1.9,1.1,3.1c1.1,1.1,2.8,1.5,4.1,1.9
	c0.2,0.1,0.5,0.1,0.7,0.2l-0.1-1.7h-1v-1.4h0.9v-0.1h-1.8l0.2-1.5l6.6,0l0.2,1.5h-1.8v0.1h0.9v1.4h-1l0,1.7c0.3-0.1,0.5-0.1,0.8-0.2
	c1.3-0.4,3-0.8,4.1-1.9c1.2-1.2,1.1-2.3,1.1-3.1c0-0.3,0-0.7,0-1c0-0.2,0.1-0.4,0.3-0.5c0.1-0.1,0.2-0.1,0.3-0.1
	c1.2-0.2,1.8,0,3.9,0.6c0.5,0.2,1.1,0.3,1.8,0.5l1.5,0.4C147.3,23,153.2,24.7,158.9,23.5z M125.7,21.7c1.4,0,2.6-1.2,2.6-2.6
	c0-1.4-1.2-2.6-2.6-2.6c-1.4,0-2.6,1.2-2.6,2.6C123.1,20.5,124.3,21.7,125.7,21.7L125.7,21.7z M107.7,25.1L107.7,25.1
	c-3.3,1.1-6.7,1.9-10.1,1.5c0.1,0.4,0.4,0.8,0.8,0.9c1.5,0.9,5.3,0.8,10-0.6L107.7,25.1z M108.6,27.4L108.6,27.4
	c-2.1,0.7-4.3,1.3-6.5,1.2c0.1,0.3,0.4,0.6,0.7,0.7c1.2,0.6,3.6,0.4,6.4-0.4L108.6,27.4z M109.6,30l-0.2-0.5l0,0
	c-1.1,0.4-2.2,0.6-3.3,0.7c0.1,0.2,0.3,0.4,0.5,0.5c0.8,0.3,2.3,0.2,4-0.3L109.6,30z M111,30.8c-0.5,0.1-0.9,0.2-1.4,0.3
	c0.1,0.1,0.2,0.2,0.4,0.3c0.4,0.1,0.8,0.2,1.2,0.1L111,30.8L111,30.8z M126.8,56.7c-0.1,0-0.1,0-0.2,0.1c-0.1,0-0.2,0.1-0.3,0.1
	l-0.1,0c-0.2,0-0.5-0.1-0.8-0.2c-0.1,0-0.2-0.1-0.3-0.1c-0.1,0-0.1,0-0.2-0.1c0.1,0,0.3-0.1,0.4-0.1c0.1,0,0.2-0.1,0.3-0.1l0.1,0
	c0.2,0.1,0.5,0.1,0.7,0.2C126.5,56.7,126.7,56.7,126.8,56.7z M124.7,47.9L124.7,47.9l0.3-0.1c0.3-0.2,0.6-0.3,0.9-0.5
	c0.2,0.1,0.5,0.2,0.7,0.4c0.1,0,0.1,0.1,0.2,0.1l-0.1,0c-0.1,0-0.2,0.1-0.2,0.1c-0.2,0.1-0.5,0.2-0.7,0.3l-0.2,0.1L125,48l-0.1-0.1
	L124.7,47.9z M127.5,39.8c-0.3,0.1-0.6,0.3-0.8,0.4c-0.2,0.1-0.3,0.2-0.5,0.2c-0.1,0-0.2,0.1-0.3,0.1l0,0c-0.2-0.1-0.3-0.2-0.5-0.3
	s-0.3-0.2-0.5-0.2c-0.3-0.2-0.6-0.3-0.9-0.5l0.1-0.1l0,0l0,0c0.1-0.1,0.3-0.2,0.4-0.4l0,0l0.1,0c0.3-0.2,0.6-0.4,0.9-0.6
	c0.3,0.2,0.7,0.5,1,0.7c0,0,0,0,0.1,0.1c0,0,0,0,0,0c0.2,0.1,0.3,0.2,0.5,0.4l0.1,0L127.5,39.8z M124,39.6L124,39.6L124,39.6
	L124,39.6z M124.8,40l-0.2-0.1L124.8,40z M124.8,46.8c0.2,0.1,0.5,0.2,0.7,0.4c-0.2,0.1-0.4,0.2-0.6,0.3l-0.3,0.1l-0.3-0.1
	c-0.2-0.1-0.3-0.2-0.5-0.3c-0.2-0.1-0.3-0.2-0.4-0.2l-0.2-0.1l-0.2-0.1c-0.1-0.1-0.2-0.2-0.3-0.3c-0.1,0-0.1-0.1-0.2-0.2
	c-0.1-0.1-0.1-0.1-0.2-0.2c-0.1-0.1-0.2-0.2-0.3-0.3c-0.3-0.5-0.5-1-0.5-1.6c0-0.1,0-0.3,0-0.4c0-0.1,0-0.1,0-0.2l0-0.2l0-0.1v0
	l0-0.1l0-0.2c0-0.1,0.1-0.3,0.1-0.4c0.2-0.5,0.4-1,0.7-1.4c0.2-0.2,0.3-0.4,0.5-0.6c0.2-0.2,0.4-0.4,0.5-0.6
	c0.1-0.1,0.1-0.1,0.2-0.2l0.1-0.1c0.3,0.2,0.6,0.3,0.9,0.4c0.2,0.1,0.3,0.2,0.5,0.2l0.2,0.1c-0.2,0.1-0.4,0.3-0.6,0.4l-0.1,0.1
	c-0.1,0.1-0.2,0.1-0.3,0.2c-0.1,0-0.1,0.1-0.2,0.2c-0.1,0.1-0.3,0.3-0.4,0.4l0,0.1c-0.1,0.1-0.3,0.3-0.4,0.5
	c-0.1,0.2-0.2,0.4-0.3,0.6c-0.1,0.1-0.1,0.2-0.1,0.3l-0.1,0.2l0,0v0v0l0,0.1l0,0.2c0,0.1,0,0.1,0,0.2c0,0.1,0,0.2,0,0.3s0,0.2,0,0.3
	l0,0.1c0,0.1,0,0.1,0,0.2c0,0.1,0,0.2,0.1,0.3l0.1,0.1l0.1,0.1c0.1,0.1,0.1,0.2,0.2,0.3c0,0,0.1,0.1,0.1,0.1c0,0,0.1,0.1,0.1,0.1
	c0.1,0.1,0.2,0.2,0.3,0.2l0.1,0.1l0.1,0.1l0.2,0.1c0.1,0,0.1,0.1,0.2,0.1c0.1,0.1,0.2,0.1,0.3,0.2L124.8,46.8z M125.3,57l-0.3,0
	c-0.3,0.1-0.6,0.1-0.8,0.1l-0.3,0h-0.1h0c-0.1,0-0.1,0-0.1-0.1c0-0.1,0.1-0.1,0.1-0.1l0,0l0.1,0l0.3,0c0.1,0,0.3-0.1,0.5-0.1l0.1,0
	h0c0.1,0,0.1,0,0.2,0.1C125,56.9,125.2,57,125.3,57z M125.5,48.4L125.5,48.4L125.5,48.4L125.5,48.4z M130.3,52.7c0,0.1,0,0.1,0,0.2
	c0,0.1,0,0.2,0,0.3c0,0.1,0,0.3-0.1,0.4l0,0.1l-0.1,0.2c0,0.1-0.1,0.1-0.1,0.2c0,0,0,0.1,0,0.1c-0.2,0.4-0.4,0.8-0.7,1.1
	c-0.3,0.3-0.6,0.6-1,0.8c-0.3,0.2-0.7,0.4-1,0.5l0,0l-0.3,0.1l-0.1,0h0c-0.2,0-0.3-0.1-0.5-0.1c-0.1,0-0.1,0-0.2-0.1
	c0.1,0,0.3-0.1,0.4-0.1h0c0.1-0.1,0.2-0.1,0.4-0.2c0.6-0.3,1.2-0.7,1.7-1.2c0.2-0.2,0.4-0.5,0.5-0.8c0.1-0.1,0.1-0.3,0.1-0.5
	c0-0.2,0.1-0.3,0.1-0.5c0-0.1,0-0.2,0-0.3c0,0,0-0.1,0-0.1c0,0,0-0.1,0-0.1c0-0.1,0-0.2,0-0.3l-0.1-0.3l0-0.1v0l0,0l0,0
	c0-0.1,0-0.1,0-0.2s0-0.1,0-0.2c0,0,0-0.1,0-0.1l0-0.1c0-0.1-0.1-0.2-0.1-0.3l-0.1-0.3l0-0.1l0-0.1l-0.1-0.1
	c-0.4-0.7-1.1-1.2-1.9-1.7c-0.1,0-0.1-0.1-0.2-0.1c0,0,0,0-0.1,0c-0.1-0.1-0.3-0.2-0.5-0.3c0.2-0.1,0.4-0.2,0.6-0.3l0.2-0.1l0.1,0
	l0.1,0.1c0.1,0.1,0.2,0.1,0.4,0.2c0.3,0.2,0.6,0.4,0.9,0.6l0.1,0.1c0.1,0.1,0.3,0.2,0.4,0.3c0.3,0.3,0.5,0.5,0.7,0.9l0.1,0.2l0,0.1
	l0,0.1c0,0.1,0.1,0.2,0.1,0.3c0,0,0,0,0,0c0,0.1,0.1,0.2,0.1,0.3l0,0.1c0,0,0,0,0,0.1v0c0,0.1,0,0.1,0,0.2c0,0.1,0,0.1,0,0.2l0,0v0
	v0v0l0,0.1c0,0.1,0,0.2,0.1,0.3c0,0.1,0,0.2,0,0.3C130.3,52.5,130.3,52.6,130.3,52.7z M126.8,39.2C126.8,39.2,126.8,39.2,126.8,39.2
	c-0.1-0.1-0.6-0.4-0.9-0.7l-0.1-0.1C126,38.7,126.4,38.9,126.8,39.2C126.7,39.2,126.7,39.2,126.8,39.2
	C126.8,39.2,126.8,39.2,126.8,39.2z M127.2,39.6L127.2,39.6L127.2,39.6L127.2,39.6z M127.5,39.9L127.5,39.9L127.5,39.9L127.5,39.9z
	 M132.6,35.3c0,0.3-0.1,0.7-0.2,1c-0.2,0.3-0.4,0.7-0.7,0.9c-0.3,0.3-0.6,0.5-0.9,0.7c-0.3,0.2-0.7,0.4-1.1,0.6
	c-0.2,0.1-0.3,0.2-0.5,0.2l-0.5,0.2l-0.2,0.1c-0.1,0-0.1,0.1-0.2,0.1l0,0c-0.2,0.1-0.5,0.2-0.7,0.3l0,0l0,0l-0.1-0.1l0,0
	c0,0,0,0,0,0c-0.2-0.1-0.3-0.2-0.4-0.3c0,0-0.6-0.4-1-0.7l0.6-0.4l0.5-0.4c0,0,0,0,0,0c0.3-0.2,0.7-0.5,0.9-0.7
	c0.1-0.1,0.2-0.1,0.2-0.2c0.2-0.1,0.3-0.3,0.5-0.4l0,0c0.2-0.1,0.3-0.3,0.4-0.5l0,0c0,0,0-0.1,0.1-0.1c0,0,0-0.1,0-0.1
	c0,0,0-0.1-0.1-0.1l0,0c0,0-0.1-0.1-0.1-0.1c0,0,0,0-0.1-0.1c0,0,0,0,0,0l-0.1-0.1c0,0-0.1-0.1-0.1-0.1c-0.1-0.1-0.1-0.1-0.1-0.2
	c-0.3-0.4-0.3-0.9,0-1.3c0.1-0.2,0.3-0.3,0.4-0.5c0,0,0,0,0,0c0.4-0.2,0.8-0.4,1.2-0.4c0.5,0,1,0.2,1.4,0.5c0.2,0.1,0.3,0.3,0.4,0.5
	l0.1,0.3c0,0,0,0,0.1,0.1c0.1,0.1,0.1,0.3,0.1,0.4C132.6,34.8,132.6,35.1,132.6,35.3z M129.9,44.2c0,0.6-0.2,1.1-0.5,1.6
	c-0.1,0.1-0.2,0.2-0.3,0.4c0,0.1-0.1,0.1-0.2,0.2s-0.1,0.1-0.2,0.2c-0.1,0.1-0.2,0.2-0.3,0.3l-0.2,0.1l-0.2,0.1
	c-0.1,0.1-0.3,0.2-0.4,0.2s-0.3,0.2-0.5,0.3c-0.1,0-0.2,0.1-0.3,0.1l0,0l-0.1,0l0,0l-0.1,0l0,0l0,0c-0.1,0-0.1,0.1-0.2,0.1
	c-0.1,0.1-0.3,0.1-0.4,0.2l-0.3,0.2l-0.2,0.1l0,0l-0.1,0c-0.2,0.1-0.3,0.2-0.5,0.3l-0.1,0c-0.9,0.5-1.6,1.1-2.1,1.8l-0.1,0.1l0,0.1
	l0,0.1l-0.1,0.3c0,0.1-0.1,0.2-0.1,0.3l0,0.1c0,0,0,0.1,0,0.1c0,0.1,0,0.1,0,0.2c0,0.1,0,0.1,0,0.2l0,0l0,0v0l0,0.1
	c0,0.1,0,0.2-0.1,0.3c0,0.1,0,0.2,0,0.3c0,0,0,0.1,0,0.1c0,0,0,0.1,0,0.1c0,0.1,0,0.2,0,0.3c0,0.2,0,0.3,0.1,0.5
	c0,0.2,0.1,0.3,0.1,0.5c0.1,0.3,0.3,0.6,0.5,0.8c0.5,0.5,1.1,0.9,1.7,1.2c0.1,0.1,0.3,0.1,0.4,0.2l0,0c0.1,0.1,0.3,0.1,0.4,0.2l0,0
	l0.1,0l0.1,0c0.1,0,0.2,0.1,0.3,0.1l0,0h0c0.1,0,0.2,0.1,0.3,0.1l0.2,0l0.1,0l0.2,0.1l0,0l0.1,0l0.1,0c0.2,0,0.4,0.1,0.5,0.1
	s0.2,0,0.3,0l0.1,0l0,0c0.1,0,0.1,0.1,0.1,0.1c0,0.1-0.1,0.1-0.1,0.1l0,0h-0.1c-0.1,0-0.2,0-0.3,0c-0.3,0-0.7-0.1-1.2-0.2l-0.1,0
	c-0.2,0-0.5-0.1-0.8-0.2l0,0c-0.1,0-0.2-0.1-0.3-0.1l0,0l-0.1,0l0,0l0,0h0l0,0l-0.1,0l-0.1,0c-0.1,0-0.2-0.1-0.3-0.1l0,0
	c-0.4-0.1-0.7-0.3-1-0.5c-0.4-0.2-0.7-0.5-1-0.8c-0.3-0.3-0.5-0.7-0.7-1.1c0,0,0-0.1,0-0.1c0-0.1-0.1-0.1-0.1-0.2
	c0-0.1,0-0.2-0.1-0.2c0,0,0,0,0-0.1c0-0.1,0-0.3-0.1-0.4c0-0.1,0-0.2,0-0.3c0-0.1,0-0.1,0-0.2c0-0.1,0-0.1,0-0.2c0-0.1,0-0.2,0-0.3
	c0-0.1,0-0.2,0.1-0.3l0-0.1v0v0v0l0,0c0-0.1,0-0.1,0-0.2c0-0.1,0-0.1,0-0.2c0,0,0,0,0,0c0,0,0,0,0-0.1l0-0.1l0.1-0.3c0,0,0,0,0,0
	c0-0.1,0.1-0.2,0.1-0.3l0-0.1l0-0.1l0.1-0.2c0.2-0.3,0.4-0.6,0.7-0.9c0.1-0.1,0.2-0.2,0.4-0.3c0,0,0.1-0.1,0.1-0.1
	c0.3-0.2,0.6-0.4,0.9-0.6c0.1-0.1,0.2-0.1,0.4-0.2l0.1-0.1l0.1-0.1l0.3-0.1c0.2-0.1,0.5-0.2,0.7-0.4l0.2-0.1l0.1,0l0,0
	c0.2-0.1,0.5-0.2,0.7-0.4c0.2-0.1,0.3-0.2,0.5-0.3c0.1,0,0.1-0.1,0.2-0.1l0.2-0.1l0.1-0.1l0.1-0.1c0.1-0.1,0.2-0.2,0.3-0.2
	c0,0,0.1-0.1,0.1-0.1c0,0,0.1-0.1,0.1-0.1c0.1-0.1,0.1-0.2,0.2-0.3l0.1-0.1l0.1-0.1c0-0.1,0.1-0.2,0.1-0.3c0,0,0-0.1,0-0.2l0-0.2
	c0-0.1,0-0.2,0-0.3c0-0.1,0-0.2,0-0.3c0-0.1,0-0.1,0-0.2l0-0.2l0-0.1l0,0v0v0l-0.1-0.2c0-0.1-0.1-0.2-0.1-0.3
	c-0.1-0.2-0.2-0.4-0.3-0.6c-0.1-0.2-0.2-0.3-0.4-0.5c0,0,0,0,0-0.1c-0.1-0.1-0.3-0.3-0.4-0.4c-0.1-0.1-0.3-0.3-0.5-0.4
	c0,0-0.1-0.1-0.1-0.1c-0.2-0.1-0.4-0.3-0.6-0.4l-0.1,0l0,0l-0.1-0.1l-0.1-0.1l0,0l-0.2-0.1l0,0l0,0l-0.1-0.1l-0.1,0l-0.1-0.1
	l-0.1-0.1l0,0l-0.2-0.1l-0.2-0.1l-0.1-0.1l-0.1-0.1l-0.3-0.1l-0.1,0c-0.2-0.1-0.5-0.2-0.7-0.3c0,0,0,0,0,0c-0.1,0-0.1-0.1-0.2-0.1
	l-0.2-0.1c-0.2-0.1-0.3-0.1-0.5-0.2c-0.2-0.1-0.3-0.2-0.5-0.2c-0.4-0.2-0.7-0.4-1.1-0.6c-0.3-0.2-0.7-0.4-1-0.7
	c-0.3-0.3-0.5-0.6-0.7-0.9c-0.2-0.3-0.2-0.6-0.3-1c0-0.2,0-0.5,0.1-0.7c0-0.1,0.1-0.3,0.1-0.4l0.1-0.1l0.1-0.3
	c0.1-0.2,0.2-0.4,0.4-0.5c0.4-0.3,0.9-0.5,1.4-0.5c0.4,0,0.9,0.1,1.2,0.4h0c0.2,0.1,0.3,0.3,0.4,0.5c0.3,0.4,0.3,0.9,0,1.3
	c0,0.1-0.1,0.1-0.1,0.2c0,0-0.1,0.1-0.1,0.1c0,0,0,0-0.1,0.1l0,0c0,0,0,0-0.1,0.1c0,0,0,0-0.1,0.1l0,0c0,0-0.1,0.1-0.1,0.1
	c0,0,0,0.1,0,0.1c0,0,0,0.1,0.1,0.1c0,0,0,0,0,0c0.1,0.2,0.3,0.3,0.4,0.5l0,0c0.1,0.1,0.3,0.3,0.5,0.4l0.2,0.2
	c0.3,0.2,0.6,0.4,0.9,0.7L125,38c0.2,0.1,0.4,0.3,0.7,0.4l0.1,0c0.3,0.2,0.7,0.5,1,0.7c0,0,0,0,0.1,0.1c0,0,0,0,0,0l0,0l0,0
	c0,0,0.1,0.1,0.1,0.1c0,0,0.1,0.1,0.2,0.1l0.1,0.1c0,0,0,0,0,0l0,0l0,0l0.1,0c0,0,0.1,0.1,0.1,0.1l0,0l0,0l0.1,0.1
	c0,0,0.1,0.1,0.1,0.1c0,0,0.1,0.1,0.2,0.2c0.2,0.2,0.4,0.4,0.6,0.6c0.2,0.2,0.3,0.4,0.5,0.6c0.3,0.4,0.6,0.9,0.7,1.4
	c0,0.1,0.1,0.3,0.1,0.4l0,0.2l0,0.1l0,0l0,0.1l0,0.2c0,0.1,0,0.1,0,0.2C129.9,44,129.9,44.1,129.9,44.2z"/>
</svg>
